module gitlab.com/deminjb/pretty_slog

go 1.21.1

require (
	github.com/fatih/color v1.17.0 // indirect
	github.com/mattn/go-colorable v0.1.13 // indirect
	github.com/mattn/go-isatty v0.0.20 // indirect
	golang.org/x/exp v0.0.0-20240613232115-7f521ea00fb8 // indirect
	golang.org/x/sys v0.18.0 // indirect
)
